Oscilloscope Trace Files/4 87Rb Fg = 1/This one had oscilloscope smoothing on.csv

Record Length,2500,Points,221.20000422E-3,-992.000043392E-3,,Record Length,2500,Points,221.20000422E-3,-232.00000823E-3,
Sample Interval,39.99999899E-6,s,221.23999894E-3,-992.000043392E-3,,Sample Interval,39.99999899E-6,s,221.23999894E-3,-232.00000823E-3,
Trigger Point,-5.53000051E3,Samples,221.28000855E-3,-992.000043392E-3,,Trigger Point,-5.53000051E3,Samples,221.28000855E-3,-232.00000823E-3,
,,,221.32000327E-3,-992.000043392E-3,,,,,221.32000327E-3,-224.00000691E-3,
,,,221.35999799E-3,-992.000043392E-3,,,,,221.35999799E-3,-232.00000823E-3,
,,,221.40000761E-3,-992.000043392E-3,,,,,221.40000761E-3,-224.00000691E-3,
Source,CH1,,221.44000232E-3,-992.000043392E-3,,Source,CH2,,221.44000232E-3,-224.00000691E-3,
Vertical Units,Volts,,221.47999704E-3,-992.000043392E-3,,Vertical Units,Volts,,221.47999704E-3,-224.00000691E-3,
Vertical Scale,100.0000047E-3,,221.52000666E-3,-992.000043392E-3,,Vertical Scale,200.00000950E-3,,221.52000666E-3,-224.00000691E-3,
Vertical Offset,0,,221.56000137E-3,-992.000043392E-3,,Vertical Offset,0,,221.56000137E-3,-224.00000691E-3,
Horizontal Units,s,,221.60001099E-3,-992.000043392E-3,,Horizontal Units,s,,221.60001099E-3,-224.00000691E-3,
Horizontal Scale,9.999999747E-3,,221.64000571E-3,-992.000043392E-3,,Horizontal Scale,9.999999747E-3,,221.64000571E-3,-224.00000691E-3,
Pt Fmt,Y,,221.68000042E-3,-992.000043392E-3,,Pt Fmt,Y,,221.68000042E-3,-224.00000691E-3,
Yzero,8.600000000,,221.72001004E-3,-992.000043392E-3,,Yzero,-1.2800000,,221.72001004E-3,-216.00000560E-3,
Probe Atten,1.000000,,221.76000476E-3,-992.000043392E-3,,Probe Atten,1.000000,,221.76000476E-3,-224.00000691E-3,
,,,221.79999948E-3,-992.000043392E-3,,,,,221.79999948E-3,-216.00000560E-3,
Note,TDS 1002C-EDU - 15:01:43   11/03/2019,,221.84000909E-3,-992.000043392E-3,,Note,TDS 1002C-EDU - 15:01:43   11/03/2019,,221.84000909E-3,-216.00000560E-3,
,,,221.88000381E-3,-992.000043392E-3,,,,,221.88000381E-3,-216.00000560E-3,
,,,221.91999853E-3,-992.000043392E-3,,,,,221.91999853E-3,-216.00000560E-3,
,,,221.96000814E-3,-992.000043392E-3,,,,,221.96000814E-3,-208.00000429E-3,
,,,222.00000286E-3,-992.000043392E-3,,,,,222.00000286E-3,-216.00000560E-3,
,,,222.03999758E-3,-992.000043392E-3,,,,,222.03999758E-3,-216.00000560E-3,
,,,222.08000720E-3,-992.000043392E-3,,,,,222.08000720E-3,-208.00000429E-3,
,,,222.12000191E-3,-992.000043392E-3,,,,,222.12000191E-3,-208.00000429E-3,
,,,222.16001153E-3,-992.000043392E-3,,,,,222.16001153E-3,-208.00000429E-3,
,,,222.20000625E-3,-992.000043392E-3,,,,,222.20000625E-3,-200.00000298E-3,
,,,222.24000096E-3,-992.000043392E-3,,,,,222.24000096E-3,-200.00000298E-3,
,,,222.28001058E-3,-992.000043392E-3,,,,,222.28001058E-3,-200.00000298E-3,
,,,222.32000530E-3,-992.000043392E-3,,,,,222.32000530E-3,-192.00000167E-3,
,,,222.36000001E-3,-992.000043392E-3,,,,,222.36000001E-3,-192.00000167E-3,
,,,222.40000963E-3,-992.000043392E-3,,,,,222.40000963E-3,-192.00000167E-3,
,,,222.44000435E-3,-992.000043392E-3,,,,,222.44000435E-3,-192.00000167E-3,
,,,222.47999907E-3,-992.000043392E-3,,,,,222.47999907E-3,-192.00000167E-3,
,,,222.52000868E-3,-992.000043392E-3,,,,,222.52000868E-3,-184.00001526E-3,
,,,222.56000340E-3,-992.000043392E-3,,,,,222.56000340E-3,-184.00001526E-3,
,,,222.59999812E-3,-992.000043392E-3,,,,,222.59999812E-3,-184.00001526E-3,
,,,222.64000773E-3,-992.000043392E-3,,,,,222.64000773E-3,-176.00001395E-3,
,,,222.68000245E-3,-992.000043392E-3,,,,,222.68000245E-3,-176.00001395E-3,
,,,222.71999717E-3,-992.000043392E-3,,,,,222.71999717E-3,-176.00001395E-3,
,,,222.76000679E-3,-992.000043392E-3,,,,,222.76000679E-3,-168.00001264E-3,
,,,222.80000150E-3,-992.000043392E-3,,,,,222.80000150E-3,-176.00001395E-3,
,,,222.84001112E-3,-992.000043392E-3,,,,,222.84001112E-3,-176.00001395E-3,
,,,222.88000584E-3,-992.000043392E-3,,,,,222.88000584E-3,-168.00001264E-3,
,,,222.92000055E-3,-992.000043392E-3,,,,,222.92000055E-3,-168.00001264E-3,
,,,222.96001017E-3,-992.000043392E-3,,,,,222.96001017E-3,-168.00001264E-3,
,,,223.00000489E-3,-992.000043392E-3,,,,,223.00000489E-3,-160.00001132E-3,
,,,223.03999960E-3,-992.000043392E-3,,,,,223.03999960E-3,-160.00001132E-3,
,,,223.08000922E-3,-992.000043392E-3,,,,,223.08000922E-3,-160.00001132E-3,
,,,223.12000394E-3,-992.000043392E-3,,,,,223.12000394E-3,-152.00001001E-3,
,,,223.15999866E-3,-992.000043392E-3,,,,,223.15999866E-3,-152.00001001E-3,
,,,223.20000827E-3,-992.000043392E-3,,,,,223.20000827E-3,-152.00001001E-3,
,,,223.24000299E-3,-992.000043392E-3,,,,,223.24000299E-3,-152.00001001E-3,
,,,223.27999771E-3,-992.000043392E-3,,,,,223.27999771E-3,-152.00001001E-3,
,,,223.32000732E-3,-992.000043392E-3,,,,,223.32000732E-3,-144.0000087E-3,
,,,223.36000204E-3,-992.000043392E-3,,,,,223.36000204E-3,-144.0000087E-3,
,,,223.39999676E-3,-992.000043392E-3,,,,,223.39999676E-3,-144.0000087E-3,
,,,223.44000638E-3,-992.000043392E-3,,,,,223.44000638E-3,-152.00001001E-3,
,,,223.48000109E-3,-992.000043392E-3,,,,,223.48000109E-3,-144.0000087E-3,
,,,223.52001071E-3,-992.000043392E-3,,,,,223.52001071E-3,-144.0000087E-3,
,,,223.56000543E-3,-992.000043392E-3,,,,,223.56000543E-3,-144.0000087E-3,
,,,223.60000014E-3,-992.000043392E-3,,,,,223.60000014E-3,-144.0000087E-3,
,,,223.64000976E-3,-992.000043392E-3,,,,,223.64000976E-3,-144.0000087E-3,
,,,223.68000448E-3,-992.000043392E-3,,,,,223.68000448E-3,-144.0000087E-3,
,,,223.71999919E-3,-992.000043392E-3,,,,,223.71999919E-3,-144.0000087E-3,
,,,223.76000881E-3,-992.000043392E-3,,,,,223.76000881E-3,-144.0000087E-3,
,,,223.80000353E-3,-992.000043392E-3,,,,,223.80000353E-3,-144.0000087E-3,
,,,223.83999825E-3,-992.000043392E-3,,,,,223.83999825E-3,-144.0000087E-3,
,,,223.88000786E-3,-992.000043392E-3,,,,,223.88000786E-3,-144.0000087E-3,
,,,223.92000258E-3,-992.000043392E-3,,,,,223.92000258E-3,-144.0000087E-3,
,,,223.95999730E-3,-992.000043392E-3,,,,,223.95999730E-3,-144.0000087E-3,
,,,224.00000691E-3,-992.000043392E-3,,,,,224.00000691E-3,-144.0000087E-3,
,,,224.04000163E-3,-992.000043392E-3,,,,,224.04000163E-3,-144.0000087E-3,
,,,224.08001125E-3,-992.000043392E-3,,,,,224.08001125E-3,-144.0000087E-3,
,,,224.12000597E-3,-992.000043392E-3,,,,,224.12000597E-3,-144.0000087E-3,
,,,224.16000068E-3,-992.000043392E-3,,,,,224.16000068E-3,-144.0000087E-3,
,,,224.20001030E-3,-992.000043392E-3,,,,,224.20001030E-3,-144.0000087E-3,
,,,224.24000502E-3,-992.000043392E-3,,,,,224.24000502E-3,-144.0000087E-3,
,,,224.27999973E-3,-992.000043392E-3,,,,,224.27999973E-3,-144.0000087E-3,
,,,224.32000935E-3,-992.000043392E-3,,,,,224.32000935E-3,-144.0000087E-3,
,,,224.36000407E-3,-992.000043392E-3,,,,,224.36000407E-3,-144.0000087E-3,
,,,224.39999878E-3,-992.000043392E-3,,,,,224.39999878E-3,-144.0000087E-3,
,,,224.44000840E-3,-992.000043392E-3,,,,,224.44000840E-3,-144.0000087E-3,
,,,224.48000312E-3,-992.000043392E-3,,,,,224.48000312E-3,-144.0000087E-3,
,,,224.51999784E-3,-992.000043392E-3,,,,,224.51999784E-3,-144.0000087E-3,
,,,224.56000745E-3,-992.000043392E-3,,,,,224.56000745E-3,-144.0000087E-3,
,,,224.60000217E-3,-992.000043392E-3,,,,,224.60000217E-3,-144.0000087E-3,
,,,224.63999689E-3,-992.000043392E-3,,,,,224.63999689E-3,-144.0000087E-3,
,,,224.68000650E-3,-992.000043392E-3,,,,,224.68000650E-3,-144.0000087E-3,
,,,224.72000122E-3,-992.000043392E-3,,,,,224.72000122E-3,-144.0000087E-3,
,,,224.76001084E-3,-992.000043392E-3,,,,,224.76001084E-3,-136.0000074E-3,
,,,224.80000556E-3,-992.000043392E-3,,,,,224.80000556E-3,-136.0000074E-3,
,,,224.84000027E-3,-992.000043392E-3,,,,,224.84000027E-3,-136.0000074E-3,
,,,224.88000989E-3,-992.000043392E-3,,,,,224.88000989E-3,-136.0000074E-3,
,,,224.92000461E-3,-992.000043392E-3,,,,,224.92000461E-3,-136.0000074E-3,
,,,224.95999932E-3,-992.000043392E-3,,,,,224.95999932E-3,-136.0000074E-3,
,,,225.00000894E-3,-992.000043392E-3,,,,,225.00000894E-3,-136.0000074E-3,
,,,225.04000366E-3,-992.000043392E-3,,,,,225.04000366E-3,-128.0000061E-3,
,,,225.07999837E-3,-992.000043392E-3,,,,,225.07999837E-3,-128.0000061E-3,
,,,225.12000799E-3,-992.000043392E-3,,,,,225.12000799E-3,-128.0000061E-3,
,,,225.16000271E-3,-992.000043392E-3,,,,,225.16000271E-3,-128.0000061E-3,
,,,225.19999743E-3,-992.000043392E-3,,,,,225.19999743E-3,-128.0000061E-3,
,,,225.24000704E-3,-992.000043392E-3,,,,,225.24000704E-3,-120.0000048E-3,
,,,225.28000176E-3,-992.000043392E-3,,,,,225.28000176E-3,-120.0000048E-3,
,,,225.32001138E-3,-992.000043392E-3,,,,,225.32001138E-3,-120.0000048E-3,
,,,225.36000609E-3,-992.000043392E-3,,,,,225.36000609E-3,-120.0000048E-3,
,,,225.40000081E-3,-992.000043392E-3,,,,,225.40000081E-3,-120.0000048E-3,
,,,225.44001043E-3,-992.000043392E-3,,,,,225.44001043E-3,-120.0000048E-3,
,,,225.48000515E-3,-992.000043392E-3,,,,,225.48000515E-3,-120.0000048E-3,
,,,225.51999986E-3,-992.000043392E-3,,,,,225.51999986E-3,-120.0000048E-3,
,,,225.56000948E-3,-992.000043392E-3,,,,,225.56000948E-3,-120.0000048E-3,
,,,225.60000420E-3,-992.000043392E-3,,,,,225.60000420E-3,-112.0000035E-3,
,,,225.63999891E-3,-992.000043392E-3,,,,,225.63999891E-3,-120.0000048E-3,
,,,225.68000853E-3,-992.000043392E-3,,,,,225.68000853E-3,-120.0000048E-3,
,,,225.72000325E-3,-992.000043392E-3,,,,,225.72000325E-3,-112.0000035E-3,
,,,225.75999796E-3,-992.000043392E-3,,,,,225.75999796E-3,-112.0000035E-3,
,,,225.80000758E-3,-992.000043392E-3,,,,,225.80000758E-3,-112.0000035E-3,
,,,225.84000230E-3,-992.000043392E-3,,,,,225.84000230E-3,-112.0000035E-3,
,,,225.87999701E-3,-992.000043392E-3,,,,,225.87999701E-3,-112.0000035E-3,
,,,225.92000663E-3,-992.000043392E-3,,,,,225.92000663E-3,-112.0000035E-3,
,,,225.96000135E-3,-992.000043392E-3,,,,,225.96000135E-3,-112.0000035E-3,
,,,226.00001097E-3,-992.000043392E-3,,,,,226.00001097E-3,-112.0000035E-3,
,,,226.04000568E-3,-992.000043392E-3,,,,,226.04000568E-3,-112.0000035E-3,
,,,226.08000040E-3,-992.000043392E-3,,,,,226.08000040E-3,-112.0000035E-3,
,,,226.12001002E-3,-992.000043392E-3,,,,,226.12001002E-3,-112.0000035E-3,
,,,226.16000473E-3,-992.000043392E-3,,,,,226.16000473E-3,-112.0000035E-3,
,,,226.19999945E-3,-992.000043392E-3,,,,,226.19999945E-3,-112.0000035E-3,
,,,226.24000907E-3,-992.000043392E-3,,,,,226.24000907E-3,-112.0000035E-3,
,,,226.28000379E-3,-992.000043392E-3,,,,,226.28000379E-3,-112.0000035E-3,
,,,226.31999850E-3,-992.000043392E-3,,,,,226.31999850E-3,-112.0000035E-3,
,,,226.36000812E-3,-992.000043392E-3,,,,,226.36000812E-3,-112.0000035E-3,
,,,226.40000284E-3,-992.000043392E-3,,,,,226.40000284E-3,-112.0000035E-3,
,,,226.43999755E-3,-992.000043392E-3,,,,,226.43999755E-3,-112.0000035E-3,
,,,226.48000717E-3,-996.000051498E-3,,,,,226.48000717E-3,-112.0000035E-3,
,,,226.52000189E-3,-992.000043392E-3,,,,,226.52000189E-3,-112.0000035E-3,
,,,226.56001151E-3,-992.000043392E-3,,,,,226.56001151E-3,-112.0000035E-3,
,,,226.60000622E-3,-992.000043392E-3,,,,,226.60000622E-3,-112.0000035E-3,
,,,226.64000094E-3,-992.000043392E-3,,,,,226.64000094E-3,-112.0000035E-3,
,,,226.68001056E-3,-992.000043392E-3,,,,,226.68001056E-3,-112.0000035E-3,
,,,226.72000527E-3,-992.000043392E-3,,,,,226.72000527E-3,-112.0000035E-3,
,,,226.75999999E-3,-992.000043392E-3,,,,,226.75999999E-3,-112.0000035E-3,
,,,226.80000961E-3,-992.000043392E-3,,,,,226.80000961E-3,-112.0000035E-3,
,,,226.84000432E-3,-992.000043392E-3,,,,,226.84000432E-3,-112.0000035E-3,
,,,226.87999904E-3,-992.000043392E-3,,,,,226.87999904E-3,-112.0000035E-3,
,,,226.92000866E-3,-992.000043392E-3,,,,,226.92000866E-3,-112.0000035E-3,
,,,226.96000338E-3,-992.000043392E-3,,,,,226.96000338E-3,-112.0000035E-3,
,,,226.99999809E-3,-992.000043392E-3,,,,,226.99999809E-3,-112.0000035E-3,
,,,227.04000771E-3,-992.000043392E-3,,,,,227.04000771E-3,-104.0000021E-3,
,,,227.08000243E-3,-992.000043392E-3,,,,,227.08000243E-3,-112.0000035E-3,
,,,227.11999714E-3,-992.000043392E-3,,,,,227.11999714E-3,-112.0000035E-3,
,,,227.16000676E-3,-992.000043392E-3,,,,,227.16000676E-3,-104.0000021E-3,
,,,227.20000148E-3,-992.000043392E-3,,,,,227.20000148E-3,-104.0000021E-3,
,,,227.24001110E-3,-992.000043392E-3,,,,,227.24001110E-3,-104.0000021E-3,
,,,227.28000581E-3,-992.000043392E-3,,,,,227.28000581E-3,-104.0000021E-3,
,,,227.32000053E-3,-992.000043392E-3,,,,,227.32000053E-3,-104.0000021E-3,
,,,227.36001015E-3,-992.000043392E-3,,,,,227.36001015E-3,-104.0000021E-3,
,,,227.40000486E-3,-992.000043392E-3,,,,,227.40000486E-3,-104.0000021E-3,
,,,227.43999958E-3,-992.000043392E-3,,,,,227.43999958E-3,-104.0000021E-3,
,,,227.48000920E-3,-992.000043392E-3,,,,,227.48000920E-3,-104.0000021E-3,
,,,227.52000391E-3,-992.000043392E-3,,,,,227.52000391E-3,-104.0000021E-3,
,,,227.55999863E-3,-992.000043392E-3,,,,,227.55999863E-3,-104.0000021E-3,
,,,227.60000825E-3,-992.000043392E-3,,,,,227.60000825E-3,-96.000000834E-3,
,,,227.64000297E-3,-992.000043392E-3,,,,,227.64000297E-3,-96.000000834E-3,
,,,227.67999768E-3,-992.000043392E-3,,,,,227.67999768E-3,-96.000000834E-3,
,,,227.72000730E-3,-992.000043392E-3,,,,,227.72000730E-3,-88.000006974E-3,
,,,227.76000202E-3,-992.000043392E-3,,,,,227.76000202E-3,-96.000000834E-3,
,,,227.79999673E-3,-992.000043392E-3,,,,,227.79999673E-3,-88.000006974E-3,
,,,227.84000635E-3,-992.000043392E-3,,,,,227.84000635E-3,-88.000006974E-3,
,,,227.88000107E-3,-992.000043392E-3,,,,,227.88000107E-3,-88.000006974E-3,
,,,227.92001069E-3,-992.000043392E-3,,,,,227.92001069E-3,-88.000006974E-3,
,,,227.96000540E-3,-992.000043392E-3,,,,,227.96000540E-3,-88.000006974E-3,
,,,228.00000012E-3,-992.000043392E-3,,,,,228.00000012E-3,-88.000006974E-3,
,,,228.04000974E-3,-992.000043392E-3,,,,,228.04000974E-3,-88.000006974E-3,
,,,228.08000445E-3,-992.000043392E-3,,,,,228.08000445E-3,-88.000006974E-3,
,,,228.11999917E-3,-992.000043392E-3,,,,,228.11999917E-3,-88.000006974E-3,
,,,228.16000879E-3,-992.000043392E-3,,,,,228.16000879E-3,-80.000005662E-3,
,,,228.20000350E-3,-992.000043392E-3,,,,,228.20000350E-3,-80.000005662E-3,
,,,228.23999822E-3,-992.000043392E-3,,,,,228.23999822E-3,-80.000005662E-3,
,,,228.28000784E-3,-992.000043392E-3,,,,,228.28000784E-3,-80.000005662E-3,
,,,228.32000256E-3,-992.000043392E-3,,,,,228.32000256E-3,-80.000005662E-3,
,,,228.35999727E-3,-992.000043392E-3,,,,,228.35999727E-3,-80.000005662E-3,
,,,228.40000689E-3,-992.000043392E-3,,,,,228.40000689E-3,-80.000005662E-3,
,,,228.44000161E-3,-992.000043392E-3,,,,,228.44000161E-3,-72.000004351E-3,
,,,228.48001122E-3,-992.000043392E-3,,,,,228.48001122E-3,-80.000005662E-3,
,,,228.52000594E-3,-992.000043392E-3,,,,,228.52000594E-3,-80.000005662E-3,
,,,228.56000066E-3,-992.000043392E-3,,,,,228.56000066E-3,-72.000004351E-3,
,,,228.60001028E-3,-992.000043392E-3,,,,,228.60001028E-3,-80.000005662E-3,
,,,228.64000499E-3,-992.000043392E-3,,,,,228.64000499E-3,-80.000005662E-3,
,,,228.67999971E-3,-992.000043392E-3,,,,,228.67999971E-3,-72.000004351E-3,
,,,228.72000933E-3,-992.000043392E-3,,,,,228.72000933E-3,-80.000005662E-3,
,,,228.76000404E-3,-992.000043392E-3,,,,,228.76000404E-3,-72.000004351E-3,
,,,228.79999876E-3,-992.000043392E-3,,,,,228.79999876E-3,-80.000005662E-3,
,,,228.84000838E-3,-992.000043392E-3,,,,,228.84000838E-3,-72.000004351E-3,
,,,228.88000309E-3,-992.000043392E-3,,,,,228.88000309E-3,-72.000004351E-3,
,,,228.91999781E-3,-992.000043392E-3,,,,,228.91999781E-3,-72.000004351E-3,
,,,228.96000743E-3,-992.000043392E-3,,,,,228.96000743E-3,-72.000004351E-3,
,,,229.00000215E-3,-992.000043392E-3,,,,,229.00000215E-3,-80.000005662E-3,
,,,229.03999686E-3,-992.000043392E-3,,,,,229.03999686E-3,-72.000004351E-3,
,,,229.08000648E-3,-992.000043392E-3,,,,,229.08000648E-3,-72.000004351E-3,
,,,229.12000120E-3,-992.000043392E-3,,,,,229.12000120E-3,-72.000004351E-3,
,,,229.16001081E-3,-992.000043392E-3,,,,,229.16001081E-3,-72.000004351E-3,
,,,229.20000553E-3,-992.000043392E-3,,,,,229.20000553E-3,-72.000004351E-3,
,,,229.24000025E-3,-992.000043392E-3,,,,,229.24000025E-3,-72.000004351E-3,
,,,229.28000987E-3,-992.000043392E-3,,,,,229.28000987E-3,-72.000004351E-3,
,,,229.32000458E-3,-992.000043392E-3,,,,,229.32000458E-3,-72.000004351E-3,
,,,229.35999930E-3,-992.000043392E-3,,,,,229.35999930E-3,-72.000004351E-3,
,,,229.40000892E-3,-992.000043392E-3,,,,,229.40000892E-3,-72.000004351E-3,
,,,229.44000363E-3,-992.000043392E-3,,,,,229.44000363E-3,-72.000004351E-3,
,,,229.47999835E-3,-992.000043392E-3,,,,,229.47999835E-3,-72.000004351E-3,
,,,229.52000797E-3,-992.000043392E-3,,,,,229.52000797E-3,-72.000004351E-3,
,,,229.56000268E-3,-992.000043392E-3,,,,,229.56000268E-3,-72.000004351E-3,
,,,229.59999740E-3,-992.000043392E-3,,,,,229.59999740E-3,-72.000004351E-3,
,,,229.64000702E-3,-988.000035286E-3,,,,,229.64000702E-3,-72.000004351E-3,
,,,229.68000174E-3,-992.000043392E-3,,,,,229.68000174E-3,-72.000004351E-3,
,,,229.72001135E-3,-992.000043392E-3,,,,,229.72001135E-3,-72.000004351E-3,
,,,229.76000607E-3,-988.000035286E-3,,,,,229.76000607E-3,-72.000004351E-3,
,,,229.80000079E-3,-992.000043392E-3,,,,,229.80000079E-3,-72.000004351E-3,
,,,229.84001040E-3,-992.000043392E-3,,,,,229.84001040E-3,-72.000004351E-3,
,,,229.88000512E-3,-992.000043392E-3,,,,,229.88000512E-3,-64.000003040E-3,
,,,229.91999984E-3,-992.000043392E-3,,,,,229.91999984E-3,-64.000003040E-3,
,,,229.96000946E-3,-992.000043392E-3,,,,,229.96000946E-3,-64.000003040E-3,
,,,230.00000417E-3,-992.000043392E-3,,,,,230.00000417E-3,-64.000003040E-3,
,,,230.03999889E-3,-992.000043392E-3,,,,,230.03999889E-3,-64.000003040E-3,
,,,230.08000851E-3,-992.000043392E-3,,,,,230.08000851E-3,-64.000003040E-3,
,,,230.12000322E-3,-992.000043392E-3,,,,,230.12000322E-3,-64.000003040E-3,
,,,230.15999794E-3,-988.000035286E-3,,,,,230.15999794E-3,-64.000003040E-3,
,,,230.20000756E-3,-992.000043392E-3,,,,,230.20000756E-3,-64.000003040E-3,
,,,230.24000227E-3,-992.000043392E-3,,,,,230.24000227E-3,-64.000003040E-3,
,,,230.27999699E-3,-992.000043392E-3,,,,,230.27999699E-3,-64.000003040E-3,
,,,230.32000661E-3,-992.000043392E-3,,,,,230.32000661E-3,-64.000003040E-3,
,,,230.36000133E-3,-992.000043392E-3,,,,,230.36000133E-3,-64.000003040E-3,
,,,230.40001094E-3,-992.000043392E-3,,,,,230.40001094E-3,-64.000003040E-3,
,,,230.44000566E-3,-992.000043392E-3,,,,,230.44000566E-3,-56.000001729E-3,
,,,230.48000038E-3,-992.000043392E-3,,,,,230.48000038E-3,-56.000001729E-3,
,,,230.52000999E-3,-992.000043392E-3,,,,,230.52000999E-3,-56.000001729E-3,
,,,230.56000471E-3,-992.000043392E-3,,,,,230.56000471E-3,-56.000001729E-3,
,,,230.59999943E-3,-992.000043392E-3,,,,,230.59999943E-3,-56.000001729E-3,
,,,230.64000905E-3,-992.000043392E-3,,,,,230.64000905E-3,-56.000001729E-3,
,,,230.68000376E-3,-992.000043392E-3,,,,,230.68000376E-3,-64.000003040E-3,
,,,230.71999848E-3,-992.000043392E-3,,,,,230.71999848E-3,-56.000001729E-3,
,,,230.76000810E-3,-992.000043392E-3,,,,,230.76000810E-3,-56.000001729E-3,
,,,230.80000281E-3,-992.000043392E-3,,,,,230.80000281E-3,-56.000001729E-3,
,,,230.83999753E-3,-992.000043392E-3,,,,,230.83999753E-3,-56.000001729E-3,
,,,230.88000715E-3,-992.000043392E-3,,,,,230.88000715E-3,-56.000001729E-3,
,,,230.92000186E-3,-992.000043392E-3,,,,,230.92000186E-3,-56.000001729E-3,
,,,230.95999658E-3,-992.000043392E-3,,,,,230.95999658E-3,-56.000001729E-3,
,,,231.00000620E-3,-992.000043392E-3,,,,,231.00000620E-3,-56.000001729E-3,
,,,231.04000092E-3,-992.000043392E-3,,,,,231.04000092E-3,-56.000001729E-3,
,,,231.08001053E-3,-992.000043392E-3,,,,,231.08001053E-3,-56.000001729E-3,
,,,231.12000525E-3,-992.000043392E-3,,,,,231.12000525E-3,-56.000001729E-3,
,,,231.15999997E-3,-992.000043392E-3,,,,,231.15999997E-3,-56.000001729E-3,
,,,231.20000958E-3,-992.000043392E-3,,,,,231.20000958E-3,-56.000001729E-3,
,,,231.24000430E-3,-992.000043392E-3,,,,,231.24000430E-3,-56.000001729E-3,
,,,231.27999902E-3,-992.000043392E-3,,,,,231.27999902E-3,-56.000001729E-3,
,,,231.32000864E-3,-992.000043392E-3,,,,,231.32000864E-3,-56.000001729E-3,
,,,231.36000335E-3,-988.000035286E-3,,,,,231.36000335E-3,-56.000001729E-3,
,,,231.39999807E-3,-992.000043392E-3,,,,,231.39999807E-3,-56.000001729E-3,
,,,231.44000769E-3,-992.000043392E-3,,,,,231.44000769E-3,-48.00000042E-3,
,,,231.48000240E-3,-992.000043392E-3,,,,,231.48000240E-3,-48.00000042E-3,
,,,231.51999712E-3,-992.000043392E-3,,,,,231.51999712E-3,-56.000001729E-3,
,,,231.56000674E-3,-992.000043392E-3,,,,,231.56000674E-3,-48.00000042E-3,
